{"count":148,"page":1,"first":1,"last":30,"hits":30,"carrier":0,"pageCount":5,"Items":[{"Item":{"title":"本気ではじめるiPhoneアプリ作り Xcode 8.x＋Swift 3.x対応","author":"西 磨翁","artistName":"","publisherName":"SBクリエイティブ","label":"","isbn":"9784797389821","jan":"","hardware":"","os":"","itemCaption":"アプリを作り、Ａｐｐ　Ｓｔｏｒｅに公開するまでを、ヤフーの「黒帯」が爆速で支援します。アプリのアイデアの出し方から、Ｘｃｏｄｅのセットアップと使い方、Ｓｗｉｆｔプログラムの書き方、アプリの公開方式まで、基本と押さえておくべきポイントを、実際にサンプルアプリを作る手順の流れでしっかり解説しています。","salesDate":"2016年12月12日","itemPrice":2970,"listPrice":0,"discountRate":0,"discountPrice":0,"itemUrl":"http://books.rakuten.co.jp/rb/14506521/","affiliateUrl":"","smallImageUrl":"http://thumbnail.image.rakuten.co.jp/@0_mall/book/cabinet/9821/9784797389821.jpg?_ex=64x64","mediumImageUrl":"http://thumbnail.image.rakuten.co.jp/@0_mall/book/cabinet/9821/9784797389821.jpg?_ex=120x120","largeImageUrl":"http://thumbnail.image.rakuten.co.jp/@0_mall/book/cabinet/9821/9784797389821.jpg?_ex=200x200","chirayomiUrl":"","availability":"1","postageFlag":1,"limitedFlag":0,"reviewCount":0,"reviewAverage":"0.0","booksGenreId":"001005001006/001005005011"}},{"Item":{"title":"Swift実践入門","author":"石川洋資/西山勇世","artistName":"","publisherName":"技術評論社","label":"","isbn":"9784774187303","jan":"","hardware":"","os":"","itemCaption":"先進的な機能を駆使した簡潔でバグのないコード。Ｘｃｏｄｅで動かしながら学ぶ基本、設計指針、実装パターン。","salesDate":"2017年02月06日","itemPrice":3456,"listPrice":0,"discountRate":0,"discountPrice":0,"itemUrl":"http://books.rakuten.co.jp/rb/14638176/","affiliateUrl":"","smallImageUrl":"http://thumbnail.image.rakuten.co.jp/@0_mall/book/cabinet/7303/9784774187303.jpg?_ex=64x64","mediumImageUrl":"http://thumbnail.image.rakuten.co.jp/@0_mall/book/cabinet/7303/9784774187303.jpg?_ex=120x120","largeImageUrl":"http://thumbnail.image.rakuten.co.jp/@0_mall/book/cabinet/7303/9784774187303.jpg?_ex=200x200","chirayomiUrl":"","availability":"1","postageFlag":2,"limitedFlag":0,"reviewCount":0,"reviewAverage":"0.0","booksGenreId":"001005017"}},{"Item":{"title":"Swiftではじめる iPhoneアプリ開発の教科書　【Swift 2＆Xcode 7対応】","author":"森巧尚","artistName":"","publisherName":"マイナビ出版","label":"","isbn":"9784839957032","jan":"","hardware":"","os":"","itemCaption":"より使いやすくなったＳｗｉｆｔ２＆Ｘｃｏｄｅ７と、もっと初心者にやさしくなった本書で、ｉＰｈｏｎｅアプリの作成をはじめましょう！最初の１冊に最適、「超定番書」のＳｗｉｆｔ２対応版。","salesDate":"2015年10月30日","itemPrice":3229,"listPrice":0,"discountRate":0,"discountPrice":0,"itemUrl":"http://books.rakuten.co.jp/rb/13441649/","affiliateUrl":"","smallImageUrl":"http://thumbnail.image.rakuten.co.jp/@0_mall/book/cabinet/7032/9784839957032.jpg?_ex=64x64","mediumImageUrl":"http://thumbnail.image.rakuten.co.jp/@0_mall/book/cabinet/7032/9784839957032.jpg?_ex=120x120","largeImageUrl":"http://thumbnail.image.rakuten.co.jp/@0_mall/book/cabinet/7032/9784839957032.jpg?_ex=200x200","chirayomiUrl":"","availability":"1","postageFlag":2,"limitedFlag":0,"reviewCount":0,"reviewAverage":"0.0","booksGenreId":"001005001004/001005001006/001006019004"}},{"Item":{"title":"詳解Swift改訂版","author":"荻原剛志","artistName":"","publisherName":"SBクリエイティブ","label":"","isbn":"9784797386257","jan":"","hardware":"","os":"","itemCaption":"２０１４年６月のファーストリリースから１年。Ｌｉｎｕｘへの移植とオープンソース化の発表により、新たな節目を迎えたＳｗｉｆｔ２を徹底解説。新機能であるプロトコル拡張とエラー処理構文についても丁寧な考察を加えました。ｉＯＳ、およびＯＳＸ用のアプリ開発者必携の１冊！！","salesDate":"2015年12月28日","itemPrice":3456,"listPrice":0,"discountRate":0,"discountPrice":0,"itemUrl":"http://books.rakuten.co.jp/rb/13487074/","affiliateUrl":"","smallImageUrl":"http://thumbnail.image.rakuten.co.jp/@0_mall/book/cabinet/6257/9784797386257.jpg?_ex=64x64","mediumImageUrl":"http://thumbnail.image.rakuten.co.jp/@0_mall/book/cabinet/6257/9784797386257.jpg?_ex=120x120","largeImageUrl":"http://thumbnail.image.rakuten.co.jp/@0_mall/book/cabinet/6257/9784797386257.jpg?_ex=200x200","chirayomiUrl":"","availability":"1","postageFlag":2,"limitedFlag":0,"reviewCount":0,"reviewAverage":"0.0","booksGenreId":"001005017"}},{"Item":{"title":"絶対に挫折しない iPhoneアプリ開発「超」入門 増補改訂第4版【Swift 2 & iOS 9】完全対応","author":"高橋京介","artistName":"","publisherName":"SBクリエイティブ","label":"","isbn":"9784797386066","jan":"","hardware":"","os":"","itemCaption":"これから始める人に読んでほしい、とことん丁寧な本格入門書。プログラミング経験ゼロでも安心の「疑問を残さない詳細解説」だから、Ｓｗｉｆｔとアプリ開発の基本はこの１冊で必ず習得できます！手順の省略や解説の飛躍も一切ありません。","salesDate":"2015年11月27日","itemPrice":2970,"listPrice":0,"discountRate":0,"discountPrice":0,"itemUrl":"http://books.rakuten.co.jp/rb/13457243/","affiliateUrl":"","smallImageUrl":"http://thumbnail.image.rakuten.co.jp/@0_mall/book/cabinet/6066/9784797386066.jpg?_ex=64x64","mediumImageUrl":"http://thumbnail.image.rakuten.co.jp/@0_mall/book/cabinet/6066/9784797386066.jpg?_ex=120x120","largeImageUrl":"http://thumbnail.image.rakuten.co.jp/@0_mall/book/cabinet/6066/9784797386066.jpg?_ex=200x200","chirayomiUrl":"","availability":"1","postageFlag":1,"limitedFlag":0,"reviewCount":0,"reviewAverage":"0.0","booksGenreId":"001005001004/001005001006/001006019004"}},{"Item":{"title":"詳細！Swift　2　iPhoneアプリ開発入門ノート","author":"大重美幸","artistName":"","publisherName":"ソーテック社","label":"","isbn":"9784800711168","jan":"","hardware":"","os":"","itemCaption":"実力差となるシンタックスの知識。経験から学ぶアプリ開発。圧倒的なボリュームの本書なら、どちらからでも自在に学べます。丁寧に手順を追った図と細かい注釈付きのコードが理解度を深め、学習効率をスピードアップ！きちんとＳｗｉｆｔ２のシンタックスを学び、アプリ開発の楽しさと可能性を体感しましょう！","salesDate":"2015年11月14日","itemPrice":3434,"listPrice":0,"discountRate":0,"discountPrice":0,"itemUrl":"http://books.rakuten.co.jp/rb/13454234/","affiliateUrl":"","smallImageUrl":"http://thumbnail.image.rakuten.co.jp/@0_mall/book/cabinet/1168/9784800711168.jpg?_ex=64x64","mediumImageUrl":"http://thumbnail.image.rakuten.co.jp/@0_mall/book/cabinet/1168/9784800711168.jpg?_ex=120x120","largeImageUrl":"http://thumbnail.image.rakuten.co.jp/@0_mall/book/cabinet/1168/9784800711168.jpg?_ex=200x200","chirayomiUrl":"","availability":"1","postageFlag":2,"limitedFlag":0,"reviewCount":0,"reviewAverage":"0.0","booksGenreId":"001005001004/001005001006/001006019004"}},{"Item":{"title":"ノンプログラマーのためのSwiftブック","author":"尾川一行/高橋佑一朗","artistName":"","publisherName":"マイナビ出版","label":"","isbn":"9784839960773","jan":"","hardware":"","os":"","itemCaption":"プログラミングがはじめて、Ｓｗｉｆｔ言語がはじめて、ｉＰｈｏｎｅアプリ開発がはじめてーたくさんの“はじめて”を乗り越えるための一冊。本書はプログラミングの知識ゼロからはじめられる入門書です。まずはお手本通りソースコードを完成させましょう。はじめてアプリを動かしたときの喜びが、上達の原動力になります！","salesDate":"2016年12月23日","itemPrice":3121,"listPrice":0,"discountRate":0,"discountPrice":0,"itemUrl":"http://books.rakuten.co.jp/rb/14612556/","affiliateUrl":"","smallImageUrl":"http://thumbnail.image.rakuten.co.jp/@0_mall/book/cabinet/0773/9784839960773.jpg?_ex=64x64","mediumImageUrl":"http://thumbnail.image.rakuten.co.jp/@0_mall/book/cabinet/0773/9784839960773.jpg?_ex=120x120","largeImageUrl":"http://thumbnail.image.rakuten.co.jp/@0_mall/book/cabinet/0773/9784839960773.jpg?_ex=200x200","chirayomiUrl":"","availability":"1","postageFlag":2,"limitedFlag":0,"reviewCount":0,"reviewAverage":"0.0","booksGenreId":"001005001004/001006019004"}},{"Item":{"title":"ほんきで学ぶSwift＋iOSアプリ開発入門 Swift2、Xcode7、iOS9対応","author":"加藤勝也","artistName":"","publisherName":"翔泳社","label":"","isbn":"9784798142357","jan":"","hardware":"","os":"","itemCaption":"アイデア満載のアプリを作る。Ｓｗｉｆｔの基本からＵＩ設計・実装・国際化対応まで。","salesDate":"2015年12月14日","itemPrice":3024,"listPrice":0,"discountRate":0,"discountPrice":0,"itemUrl":"http://books.rakuten.co.jp/rb/13447015/","affiliateUrl":"","smallImageUrl":"http://thumbnail.image.rakuten.co.jp/@0_mall/book/cabinet/2357/9784798142357.jpg?_ex=64x64","mediumImageUrl":"http://thumbnail.image.rakuten.co.jp/@0_mall/book/cabinet/2357/9784798142357.jpg?_ex=120x120","largeImageUrl":"http://thumbnail.image.rakuten.co.jp/@0_mall/book/cabinet/2357/9784798142357.jpg?_ex=200x200","chirayomiUrl":"","availability":"1","postageFlag":2,"limitedFlag":0,"reviewCount":0,"reviewAverage":"0.0","booksGenreId":"001005001004/001005001006/001006019004"}},{"Item":{"title":"iPhoneアプリ開発講座 はじめてのSwift","author":"諏訪 悠紀","artistName":"","publisherName":"SBクリエイティブ","label":"","isbn":"9784797385281","jan":"","hardware":"","os":"","itemCaption":"プログラミング経験ゼロでｉＰｈｏｎｅアプリ開発に挑む人のための決定版教科書。Ａｐｐｌｅ標準のプログラミング言語ＳｗｉｆｔとＸｃｏｄｅにおけるアプリ開発、両方の基礎を徹底解説。「何がわからないか？」に徹底的にこだわった、はじめての解説書。","salesDate":"2016年12月02日","itemPrice":2786,"listPrice":0,"discountRate":0,"discountPrice":0,"itemUrl":"http://books.rakuten.co.jp/rb/14549355/","affiliateUrl":"","smallImageUrl":"http://thumbnail.image.rakuten.co.jp/@0_mall/book/cabinet/5281/9784797385281.jpg?_ex=64x64","mediumImageUrl":"http://thumbnail.image.rakuten.co.jp/@0_mall/book/cabinet/5281/9784797385281.jpg?_ex=120x120","largeImageUrl":"http://thumbnail.image.rakuten.co.jp/@0_mall/book/cabinet/5281/9784797385281.jpg?_ex=200x200","chirayomiUrl":"","availability":"1","postageFlag":1,"limitedFlag":0,"reviewCount":0,"reviewAverage":"0.0","booksGenreId":"001005001004/001005001006"}},{"Item":{"title":"SpriteKitではじめる2Dゲームプログラミング","author":"村田知常/原知愛","artistName":"","publisherName":"翔泳社","label":"","isbn":"9784798139517","jan":"","hardware":"","os":"","itemCaption":"本書は、Ａｐｐｌｅ標準のプログラミング言語ＳｗｉｆｔとＳｐｒｉｔｅＫｉｔフレームワークを使って６つのゲームを作りながら、２Ｄゲームプログラミングの基本と定番テクニックを学ぶ書籍です。さまざまな物体をタワー状に積んでいく積み上げゲーム、パックマン風のドットイートゲーム、Ｆｌａｐｐｙ　Ｂｉｒｄ風の横スクロールアクション、加速度センサーによるジャンプゲーム、ＡＩを使ったリバーシなど、人気６ジャンルのゲームを作ります。このゲーム作りを通じて、Ｓｗｉｆｔ言語とＳｐｒｉｔｅＫｉｔフレームワークの基本に加えて、人気・定番２Ｄゲームの作り方とその開発技法を学びましょう。","salesDate":"2015年02月27日","itemPrice":3218,"listPrice":0,"discountRate":0,"discountPrice":0,"itemUrl":"http://books.rakuten.co.jp/rb/13092010/","affiliateUrl":"","smallImageUrl":"http://thumbnail.image.rakuten.co.jp/@0_mall/book/cabinet/9517/9784798139517.jpg?_ex=64x64","mediumImageUrl":"http://thumbnail.image.rakuten.co.jp/@0_mall/book/cabinet/9517/9784798139517.jpg?_ex=120x120","largeImageUrl":"http://thumbnail.image.rakuten.co.jp/@0_mall/book/cabinet/9517/9784798139517.jpg?_ex=200x200","chirayomiUrl":"","availability":"1","postageFlag":2,"limitedFlag":0,"reviewCount":0,"reviewAverage":"0.0","booksGenreId":"001005017"}},{"Item":{"title":"SUZUKI　SWIFT","author":"","artistName":"","publisherName":"交通タイムス社","label":"","isbn":"9784865422528","jan":"","hardware":"","os":"","itemCaption":"","salesDate":"2017年02月09日","itemPrice":779,"listPrice":0,"discountRate":0,"discountPrice":0,"itemUrl":"http://books.rakuten.co.jp/rb/14677298/","affiliateUrl":"","smallImageUrl":"http://thumbnail.image.rakuten.co.jp/@0_mall/book/cabinet/2528/9784865422528.jpg?_ex=64x64","mediumImageUrl":"http://thumbnail.image.rakuten.co.jp/@0_mall/book/cabinet/2528/9784865422528.jpg?_ex=120x120","largeImageUrl":"http://thumbnail.image.rakuten.co.jp/@0_mall/book/cabinet/2528/9784865422528.jpg?_ex=200x200","chirayomiUrl":"","availability":"1","postageFlag":0,"limitedFlag":0,"reviewCount":0,"reviewAverage":"0.0","booksGenreId":"001012010003"}},{"Item":{"title":"小学生でもわかるiPhoneアプリのつくり方","author":"森巧尚","artistName":"","publisherName":"秀和システム","label":"","isbn":"9784798045849","jan":"","hardware":"","os":"","itemCaption":"うちのＭａｃを使ってプログラマー体験。ｉＰｈｏｎｅアプリが無料でできる！！サポートサイトあり！初めてでも安心！！","salesDate":"2016年03月02日","itemPrice":3024,"listPrice":0,"discountRate":0,"discountPrice":0,"itemUrl":"http://books.rakuten.co.jp/rb/13609544/","affiliateUrl":"","smallImageUrl":"http://thumbnail.image.rakuten.co.jp/@0_mall/book/cabinet/5849/9784798045849.jpg?_ex=64x64","mediumImageUrl":"http://thumbnail.image.rakuten.co.jp/@0_mall/book/cabinet/5849/9784798045849.jpg?_ex=120x120","largeImageUrl":"http://thumbnail.image.rakuten.co.jp/@0_mall/book/cabinet/5849/9784798045849.jpg?_ex=200x200","chirayomiUrl":"","availability":"1","postageFlag":2,"limitedFlag":0,"reviewCount":0,"reviewAverage":"0.0","booksGenreId":"001005001006"}},{"Item":{"title":"テイラー・スウィフト","author":"","artistName":"テイラー・スウィフト","publisherName":"","label":"ユニバーサルミュージック インターナショナル","isbn":"","jan":"4988005724168","hardware":"","os":"","itemCaption":"最高の音で楽しむために！往年の名曲をスーパープライスで！","salesDate":"2012年10月24日","itemPrice":1851,"listPrice":0,"discountRate":0,"discountPrice":0,"itemUrl":"http://books.rakuten.co.jp/rb/11756310/","affiliateUrl":"","smallImageUrl":"http://thumbnail.image.rakuten.co.jp/@0_mall/book/cabinet/4168/4988005724168.jpg?_ex=64x64","mediumImageUrl":"http://thumbnail.image.rakuten.co.jp/@0_mall/book/cabinet/4168/4988005724168.jpg?_ex=120x120","largeImageUrl":"http://thumbnail.image.rakuten.co.jp/@0_mall/book/cabinet/4168/4988005724168.jpg?_ex=200x200","chirayomiUrl":"","availability":"1","postageFlag":1,"limitedFlag":0,"reviewCount":1,"reviewAverage":"5.0","booksGenreId":"002102001"}},{"Item":{"title":"詳細！Swift 3 iPhoneアプリ開発入門ノート","author":"大重美幸","artistName":"","publisherName":"ソーテック社","label":"","isbn":"9784800711489","jan":"","hardware":"","os":"","itemCaption":"手加減なしの進化！Ｓｗｉｆｔ３を全力で学ぶならこの１冊。圧倒的ボリュームで詳細なシンタックス解説からアプリ開発まで圧巻の内容！","salesDate":"2016年11月05日","itemPrice":3456,"listPrice":0,"discountRate":0,"discountPrice":0,"itemUrl":"http://books.rakuten.co.jp/rb/14512674/","affiliateUrl":"","smallImageUrl":"http://thumbnail.image.rakuten.co.jp/@0_mall/book/cabinet/1489/9784800711489.jpg?_ex=64x64","mediumImageUrl":"http://thumbnail.image.rakuten.co.jp/@0_mall/book/cabinet/1489/9784800711489.jpg?_ex=120x120","largeImageUrl":"http://thumbnail.image.rakuten.co.jp/@0_mall/book/cabinet/1489/9784800711489.jpg?_ex=200x200","chirayomiUrl":"","availability":"1","postageFlag":2,"limitedFlag":0,"reviewCount":0,"reviewAverage":"0.0","booksGenreId":"001005001004/001005001006/001006019004"}},{"Item":{"title":"SWIFT！　3","author":"松田未来","artistName":"","publisherName":"徳間書店","label":"","isbn":"9784199504761","jan":"","hardware":"","os":"","itemCaption":"","salesDate":"2015年10月13日","itemPrice":669,"listPrice":0,"discountRate":0,"discountPrice":0,"itemUrl":"http://books.rakuten.co.jp/rb/13383320/","affiliateUrl":"","smallImageUrl":"http://thumbnail.image.rakuten.co.jp/@0_mall/book/cabinet/4761/9784199504761.jpg?_ex=64x64","mediumImageUrl":"http://thumbnail.image.rakuten.co.jp/@0_mall/book/cabinet/4761/9784199504761.jpg?_ex=120x120","largeImageUrl":"http://thumbnail.image.rakuten.co.jp/@0_mall/book/cabinet/4761/9784199504761.jpg?_ex=200x200","chirayomiUrl":"","availability":"1","postageFlag":0,"limitedFlag":0,"reviewCount":0,"reviewAverage":"0.0","booksGenreId":"001001012"}},{"Item":{"title":"現場ですぐに使える！Swift逆引き大全555の極意","author":"増田智明/池谷京子","artistName":"","publisherName":"秀和システム","label":"","isbn":"9784798044279","jan":"","hardware":"","os":"","itemCaption":"基礎から便利技までコーディングテクニックが満載！そのまま流用できる豊富なサンプルプログラム！ｉＯＳアプリ開発に必要な知識をコンパクトに解説！７１の分類で目的のクラス、メソッドがすぐに探せる！","salesDate":"2015年12月","itemPrice":3132,"listPrice":0,"discountRate":0,"discountPrice":0,"itemUrl":"http://books.rakuten.co.jp/rb/13495058/","affiliateUrl":"","smallImageUrl":"http://thumbnail.image.rakuten.co.jp/@0_mall/book/cabinet/4279/9784798044279.jpg?_ex=64x64","mediumImageUrl":"http://thumbnail.image.rakuten.co.jp/@0_mall/book/cabinet/4279/9784798044279.jpg?_ex=120x120","largeImageUrl":"http://thumbnail.image.rakuten.co.jp/@0_mall/book/cabinet/4279/9784798044279.jpg?_ex=200x200","chirayomiUrl":"","availability":"1","postageFlag":2,"limitedFlag":0,"reviewCount":1,"reviewAverage":"4.0","booksGenreId":"001005001004/001006019004"}},{"Item":{"title":"No．1スクール講師陣による世界一受けたいiPhoneアプリ開発の授業改訂版","author":"桑村治良/我妻幸長","artistName":"","publisherName":"技術評論社","label":"","isbn":"9784774178714","jan":"","hardware":"","os":"","itemCaption":"他にはないサンプルアプリを使って学習！アプリ開発専門スクールのノウハウ満載！","salesDate":"2016年01月26日","itemPrice":3110,"listPrice":0,"discountRate":0,"discountPrice":0,"itemUrl":"http://books.rakuten.co.jp/rb/13532259/","affiliateUrl":"","smallImageUrl":"http://thumbnail.image.rakuten.co.jp/@0_mall/book/cabinet/8714/9784774178714.jpg?_ex=64x64","mediumImageUrl":"http://thumbnail.image.rakuten.co.jp/@0_mall/book/cabinet/8714/9784774178714.jpg?_ex=120x120","largeImageUrl":"http://thumbnail.image.rakuten.co.jp/@0_mall/book/cabinet/8714/9784774178714.jpg?_ex=200x200","chirayomiUrl":"","availability":"2","postageFlag":2,"limitedFlag":0,"reviewCount":0,"reviewAverage":"0.0","booksGenreId":"001005001004/001005001006/001006019004"}},{"Item":{"title":"Xcodeではじめる簡単iPhoneアプリ開発","author":"正健太朗","artistName":"","publisherName":"技術評論社","label":"","isbn":"9784774184227","jan":"","hardware":"","os":"","itemCaption":"ストーリーボード開発の体験学習コース！パーツ配置や画面遷移もマウスで設定。","salesDate":"2016年09月22日","itemPrice":2894,"listPrice":0,"discountRate":0,"discountPrice":0,"itemUrl":"http://books.rakuten.co.jp/rb/14428135/","affiliateUrl":"","smallImageUrl":"http://thumbnail.image.rakuten.co.jp/@0_mall/book/cabinet/4227/9784774184227.jpg?_ex=64x64","mediumImageUrl":"http://thumbnail.image.rakuten.co.jp/@0_mall/book/cabinet/4227/9784774184227.jpg?_ex=120x120","largeImageUrl":"http://thumbnail.image.rakuten.co.jp/@0_mall/book/cabinet/4227/9784774184227.jpg?_ex=200x200","chirayomiUrl":"","availability":"1","postageFlag":1,"limitedFlag":0,"reviewCount":0,"reviewAverage":"0.0","booksGenreId":"001005001004/001005001006/001006019004"}},{"Item":{"title":"これからつくる iPhoneアプリ開発入門 〜Swiftではじめるプログラミングの第一歩〜","author":"藤 治仁/徳弘 佑衣","artistName":"","publisherName":"SBクリエイティブ","label":"","isbn":"9784797387148","jan":"","hardware":"","os":"","itemCaption":"体験→理解→学ぶ、選び抜かれたサンプルアプリを作りながら、効果的にレベルアップ！Ｓｗｉｆｔ３＆Ｘｃｏｄｅ８にもしっかりと対応。","salesDate":"2016年10月25日","itemPrice":2894,"listPrice":0,"discountRate":0,"discountPrice":0,"itemUrl":"http://books.rakuten.co.jp/rb/14462591/","affiliateUrl":"","smallImageUrl":"http://thumbnail.image.rakuten.co.jp/@0_mall/book/cabinet/7148/9784797387148.jpg?_ex=64x64","mediumImageUrl":"http://thumbnail.image.rakuten.co.jp/@0_mall/book/cabinet/7148/9784797387148.jpg?_ex=120x120","largeImageUrl":"http://thumbnail.image.rakuten.co.jp/@0_mall/book/cabinet/7148/9784797387148.jpg?_ex=200x200","chirayomiUrl":"","availability":"1","postageFlag":1,"limitedFlag":0,"reviewCount":0,"reviewAverage":"0.0","booksGenreId":"001005001006/001005005011"}},{"Item":{"title":"詳解Swift 第3版","author":"荻原 剛志","artistName":"","publisherName":"SBクリエイティブ","label":"","isbn":"9784797390537","jan":"","hardware":"","os":"","itemCaption":"すべてのＡｐｐｌｅプログラマに捧ぐ！“ＯＳ　Ｘ”は“ｍａｃＯＳ”に、そしてｉＯＳはバージョン「１０」に変わった２０１６年。Ｓｗｉｆｔにはその言語仕様の一部で後方互換性を失わせるという大きな変更が加えられた。本書ではその全貌をあますことなく解説するとともに、新たにデバッグに関する情報を追加。第一人者による、日本で一番詳しいＳｗｉｆｔの解説書。","salesDate":"2016年12月28日","itemPrice":3456,"listPrice":0,"discountRate":0,"discountPrice":0,"itemUrl":"http://books.rakuten.co.jp/rb/14583669/","affiliateUrl":"","smallImageUrl":"http://thumbnail.image.rakuten.co.jp/@0_mall/book/cabinet/0537/9784797390537.jpg?_ex=64x64","mediumImageUrl":"http://thumbnail.image.rakuten.co.jp/@0_mall/book/cabinet/0537/9784797390537.jpg?_ex=120x120","largeImageUrl":"http://thumbnail.image.rakuten.co.jp/@0_mall/book/cabinet/0537/9784797390537.jpg?_ex=200x200","chirayomiUrl":"","availability":"1","postageFlag":2,"limitedFlag":0,"reviewCount":0,"reviewAverage":"0.0","booksGenreId":"001005017"}},{"Item":{"title":"Swiftポケットリファレンス","author":"片渕彼富/山田祥寛","artistName":"","publisherName":"技術評論社","label":"","isbn":"9784774179841","jan":"","hardware":"","os":"","itemCaption":"ロングセラーシリーズ・ポケットリファレンスに話題のＳｗｉｆｔが新登場。「逆引き形式で目的からすぐ探せる」「サンプルコードを見ながら具体的な実装のイメージがつかめる」という特徴で、困ったときにすぐに役立ちます。ｉＰｈｏｎｅ　６ｓ／ｉＰｈｏｎｅ　６ｓ　Ｐｌｕｓから搭載された「３Ｄ　Ｔｏｕｃｈ」にも対応。現場で役立つ信頼の１冊です。","salesDate":"2016年03月04日","itemPrice":3002,"listPrice":0,"discountRate":0,"discountPrice":0,"itemUrl":"http://books.rakuten.co.jp/rb/13769877/","affiliateUrl":"","smallImageUrl":"http://thumbnail.image.rakuten.co.jp/@0_mall/book/cabinet/9841/9784774179841.jpg?_ex=64x64","mediumImageUrl":"http://thumbnail.image.rakuten.co.jp/@0_mall/book/cabinet/9841/9784774179841.jpg?_ex=120x120","largeImageUrl":"http://thumbnail.image.rakuten.co.jp/@0_mall/book/cabinet/9841/9784774179841.jpg?_ex=200x200","chirayomiUrl":"","availability":"1","postageFlag":2,"limitedFlag":0,"reviewCount":0,"reviewAverage":"0.0","booksGenreId":"001005017"}},{"Item":{"title":"テイラー・スウィフトーデラックス・エデション（CD＋DVD）","author":"","artistName":"テイラー・スウィフト","publisherName":"","label":"ユニバーサルミュージック インターナショナル","isbn":"","jan":"4988005615619","hardware":"","os":"","itemCaption":"第52回グラミー賞にて最優秀アルバム賞を含む4部門を獲得したカントリー・ミュージックの新星、テイラー・スウィフトのデビュー・アルバム。当時16歳とは思えない卓越したソング・ライティング力や歌唱力が聴ける。最高の音で楽しむために！往年の名曲をスーパープライスで！","salesDate":"2010年06月30日","itemPrice":2756,"listPrice":0,"discountRate":0,"discountPrice":0,"itemUrl":"http://books.rakuten.co.jp/rb/6455186/","affiliateUrl":"","smallImageUrl":"http://thumbnail.image.rakuten.co.jp/@0_mall/book/cabinet/5619/4988005615619.jpg?_ex=64x64","mediumImageUrl":"http://thumbnail.image.rakuten.co.jp/@0_mall/book/cabinet/5619/4988005615619.jpg?_ex=120x120","largeImageUrl":"http://thumbnail.image.rakuten.co.jp/@0_mall/book/cabinet/5619/4988005615619.jpg?_ex=200x200","chirayomiUrl":"","availability":"1","postageFlag":1,"limitedFlag":0,"reviewCount":10,"reviewAverage":"4.7","booksGenreId":"002102001"}},{"Item":{"title":"テイラー・スウィフト アメリカン・スウィートハート","author":"","artistName":"テイラー・スウィフト","publisherName":"","label":"(株)ラインコミュニケーションズ","isbn":"","jan":"4529971812024","hardware":"","os":"","itemCaption":"","salesDate":"2015年04月20日","itemPrice":2430,"listPrice":0,"discountRate":0,"discountPrice":0,"itemUrl":"http://books.rakuten.co.jp/rb/13155938/","affiliateUrl":"","smallImageUrl":"http://thumbnail.image.rakuten.co.jp/@0_mall/book/cabinet/noimage_01.gif?_ex=64x64","mediumImageUrl":"http://thumbnail.image.rakuten.co.jp/@0_mall/book/cabinet/noimage_01.gif?_ex=120x120","largeImageUrl":"http://thumbnail.image.rakuten.co.jp/@0_mall/book/cabinet/noimage_01.gif?_ex=200x200","chirayomiUrl":"","availability":"1","postageFlag":1,"limitedFlag":0,"reviewCount":0,"reviewAverage":"0.0","booksGenreId":"003201006/003205001"}},{"Item":{"title":"OpenStack　Swift","author":"ジョー・アーノルド/SwiftStack　team","artistName":"","publisherName":"オライリー・ジャパン","label":"","isbn":"9784873117379","jan":"","hardware":"","os":"","itemCaption":"本書は、オープンソースでクラウド環境を構築するソフトウェア群であるＯｐｅｎＳｔａｃｋのストレージ機能を担うＳｗｉｆｔについての解説書です。本書では、動作原理や構成モジュールといったＳｗｉｆｔの基礎から、設計、インストール、運用、トラブルシューティング、性能評価までを理論と実践の両面から解説しています。開発者視点からのベストプラクティスとＴｉｐｓも豊富に交えた貴重な一冊です。","salesDate":"2015年11月","itemPrice":3672,"listPrice":0,"discountRate":0,"discountPrice":0,"itemUrl":"http://books.rakuten.co.jp/rb/13484784/","affiliateUrl":"","smallImageUrl":"http://thumbnail.image.rakuten.co.jp/@0_mall/book/cabinet/7379/9784873117379.jpg?_ex=64x64","mediumImageUrl":"http://thumbnail.image.rakuten.co.jp/@0_mall/book/cabinet/7379/9784873117379.jpg?_ex=120x120","largeImageUrl":"http://thumbnail.image.rakuten.co.jp/@0_mall/book/cabinet/7379/9784873117379.jpg?_ex=200x200","chirayomiUrl":"","availability":"1","postageFlag":2,"limitedFlag":0,"reviewCount":0,"reviewAverage":"0.0","booksGenreId":"001012010001"}},{"Item":{"title":"【輸入盤】Taylor Swift","author":"","artistName":"Taylor Swift","publisherName":"","label":"Mercury","isbn":"","jan":"0602517874695","hardware":"","os":"","itemCaption":"全てはここから始まった！Taylor Swiftが2006年10月24日、Big Machineからレーベルの第一弾アーティストとしてデビューしたファースト・アルバム！\nこの時Taylor Swiftはまだ若干16歳という若さながら、アルバム・セールスは 1月20日時点でアメリカのみで460万枚を突破！\nさらにビルボード・チャートでも5位にランクインし、Country Musicでは1位（24週間連続）を記録！さらに今現在も売れ続け、20世紀に入って、最も長い期間在位しているアルバムとなっています！\nTayorはこのデビュー・アルバムのリリース後、様々な賞にノミネートされ、受賞！\n07年のCMAホライゾン・アワード受賞やナッシュビル・ソングライターズ・アソシエイションの最優秀シンガー・ソングライター選出、さらに2008年には第10回ヤング・ハリーウッド・アワードにてSuperstar of Tomorrowを受賞したりMTVビデオ・ミュージック・アワードでは新人賞にノミネート、アカデミー・オブ・カントリーでは最優秀新人女性ヴォーカルを受賞などなど、ここには書ききれない数々の賞を総なめ！\nそしてもちろん、最近では2010年の第52回グラミー賞にて4冠を達成し、世界中にTaaylorの名が響き渡りました！\nそんな彼女の原点ともいえる作品です！！\n\n\nDisc1\n1 : Tim McGraw\n2 : Picture To Burn\n3 : Teardrops on My Guitar US Album Version\n4 : Place in This World\n5 : Cold As You\n6 : Outside\n7 : Tied Together With A Smile\n8 : Stay Beautiful\n9 : Should've Said No US Album Version\n10 : Mary's Song (Oh My My My)\n11 : Our Song US Album Version\n12 : I'm Only Me When I'm With You\n13 : Invisible\n14 : Perfectly Good Heart\n15 : Teardrops On My Guitar (POP version)\nPowered by HMV最高の音で楽しむために！","salesDate":"2008年10月06日","itemPrice":1944,"listPrice":0,"discountRate":0,"discountPrice":0,"itemUrl":"http://books.rakuten.co.jp/rb/12058127/","affiliateUrl":"","smallImageUrl":"http://thumbnail.image.rakuten.co.jp/@0_mall/book/cabinet/4695/0602517874695.jpg?_ex=64x64","mediumImageUrl":"http://thumbnail.image.rakuten.co.jp/@0_mall/book/cabinet/4695/0602517874695.jpg?_ex=120x120","largeImageUrl":"http://thumbnail.image.rakuten.co.jp/@0_mall/book/cabinet/4695/0602517874695.jpg?_ex=200x200","chirayomiUrl":"","availability":"1","postageFlag":1,"limitedFlag":0,"reviewCount":0,"reviewAverage":"0.0","booksGenreId":"002102005"}},{"Item":{"title":"15時間でわかるSwift集中講座","author":"高橋広樹","artistName":"","publisherName":"技術評論社","label":"","isbn":"9784774178936","jan":"","hardware":"","os":"","itemCaption":"いちばんやさしいＳｗｉｆｔの教科書。ずっと使える知識が身につく、入門書の決定版！Ｓｗｉｆｔ２．０対応、Ｘｃｏｄｅ７．０対応。Ｘｃｏｄｅ７．０を用いてＳｗｉｆｔの文法からクラスの基礎知識まで簡単に学習できます。サンプルプログラムをダウンロードできるので、無理なくアプリケーション開発を体験できます。","salesDate":"2016年01月26日","itemPrice":3218,"listPrice":0,"discountRate":0,"discountPrice":0,"itemUrl":"http://books.rakuten.co.jp/rb/13532261/","affiliateUrl":"","smallImageUrl":"http://thumbnail.image.rakuten.co.jp/@0_mall/book/cabinet/8936/9784774178936.jpg?_ex=64x64","mediumImageUrl":"http://thumbnail.image.rakuten.co.jp/@0_mall/book/cabinet/8936/9784774178936.jpg?_ex=120x120","largeImageUrl":"http://thumbnail.image.rakuten.co.jp/@0_mall/book/cabinet/8936/9784774178936.jpg?_ex=200x200","chirayomiUrl":"","availability":"1","postageFlag":2,"limitedFlag":0,"reviewCount":0,"reviewAverage":"0.0","booksGenreId":"001005017"}},{"Item":{"title":"テイラー・スウィフト/ライフ・アンド・ストーリー","author":"","artistName":"テイラー・スウィフト","publisherName":"","label":"是空","isbn":"","jan":"4571390739420","hardware":"","os":"","itemCaption":"新世代の歌姫テイラー・スウィフト、初のドキュメンタリーDVD！\n\n全世界で大人気！新世代のカントリー・ポップ・アーティスト、テイラー・スウィフト。ペンシルバニア州レディングで生まれた彼女は、10歳の時にワイオミッシングでのコンテストで初めて人前で歌を歌い、その時から作詞を始めるーー。そして現在、第52回グラミー賞を始め、数多くの栄光を手にしたテイラーの、本人並びに関係者へのインタビューと記録映像から綴る、ライフ＆ストーリー。\n\n\n★「テラスハウス」主題歌「私たちは絶対に絶対にヨリを戻したりしない」で日本でも本格ブレイク！本年6月の来日の際には空港に多数のファンが押しかけるなど大フィーバー。人気絶頂のテイラー・スウィフトの素顔に迫る初のドキュメンタリー。\n\n※本編中に楽曲は収録されておりません。\n\n(C)2010 ALL RIGHTS RESERVED WARNING FOR PRIVATE USE ONLY. FEDERAL LAW PROVIDES SEVERE CIVIL AND CRIMINAL PENALTIES FOR UNAUTHORIZED REPRODUCTION PROPERTY OF FLASH LIGHT ENTERTAINMENT COMPANY 520 RODEO DRIVE BEVERY HILLS. CA 90210","salesDate":"2014年09月26日","itemPrice":2721,"listPrice":0,"discountRate":0,"discountPrice":0,"itemUrl":"http://books.rakuten.co.jp/rb/12834892/","affiliateUrl":"","smallImageUrl":"http://thumbnail.image.rakuten.co.jp/@0_mall/book/cabinet/9420/4571390739420.jpg?_ex=64x64","mediumImageUrl":"http://thumbnail.image.rakuten.co.jp/@0_mall/book/cabinet/9420/4571390739420.jpg?_ex=120x120","largeImageUrl":"http://thumbnail.image.rakuten.co.jp/@0_mall/book/cabinet/9420/4571390739420.jpg?_ex=200x200","chirayomiUrl":"","availability":"1","postageFlag":1,"limitedFlag":0,"reviewCount":0,"reviewAverage":"0.0","booksGenreId":"003204001/003204002/003204003/003204004/003204005/003204006/003204007/003204008"}},{"Item":{"title":"Swift逆引きハンドブック","author":"林晃","artistName":"","publisherName":"シーアンドアール研究所","label":"","isbn":"9784863541757","jan":"","hardware":"","os":"","itemCaption":"目的からＳｗｉｆｔの機能が引ける逆引きリファレンスの決定版！ｉＯＳアプリ開発者の必携書！Ｓｗｉｆｔ　２．ｘ対応。","salesDate":"2016年01月26日","itemPrice":4320,"listPrice":0,"discountRate":0,"discountPrice":0,"itemUrl":"http://books.rakuten.co.jp/rb/13596543/","affiliateUrl":"","smallImageUrl":"http://thumbnail.image.rakuten.co.jp/@0_mall/book/cabinet/1757/9784863541757.jpg?_ex=64x64","mediumImageUrl":"http://thumbnail.image.rakuten.co.jp/@0_mall/book/cabinet/1757/9784863541757.jpg?_ex=120x120","largeImageUrl":"http://thumbnail.image.rakuten.co.jp/@0_mall/book/cabinet/1757/9784863541757.jpg?_ex=200x200","chirayomiUrl":"","availability":"1","postageFlag":2,"limitedFlag":0,"reviewCount":0,"reviewAverage":"0.0","booksGenreId":"001005005011"}},{"Item":{"title":"Swiftデザインパターン","author":"アダム・フリーマン/クイープ","artistName":"","publisherName":"翔泳社","label":"","isbn":"9784798142494","jan":"","hardware":"","os":"","itemCaption":"","salesDate":"2015年10月13日","itemPrice":4104,"listPrice":0,"discountRate":0,"discountPrice":0,"itemUrl":"http://books.rakuten.co.jp/rb/13390322/","affiliateUrl":"","smallImageUrl":"http://thumbnail.image.rakuten.co.jp/@0_mall/book/cabinet/2494/9784798142494.jpg?_ex=64x64","mediumImageUrl":"http://thumbnail.image.rakuten.co.jp/@0_mall/book/cabinet/2494/9784798142494.jpg?_ex=120x120","largeImageUrl":"http://thumbnail.image.rakuten.co.jp/@0_mall/book/cabinet/2494/9784798142494.jpg?_ex=200x200","chirayomiUrl":"","availability":"1","postageFlag":2,"limitedFlag":0,"reviewCount":0,"reviewAverage":"0.0","booksGenreId":"001005017"}},{"Item":{"title":"SWIFTのすべて","author":"中島真志","artistName":"","publisherName":"東洋経済新報社","label":"","isbn":"9784492681305","jan":"","hardware":"","os":"","itemCaption":"ＳＷＩＦＴは、ベルギーに本部を置く、金融機関の国際的な取引に関するメッセージ通信のネットワークを提供する組織。ＳＷＩＦＴのネットワークには、世界２００カ国以上、８０００以上の金融機関が参加している。国際的な金融取引の増加に伴い、その役割はますます重要になっている。本書は、ＳＷＩＦＴの機能、サービスの内容、日本におけるＳＷＩＦＴの利用状況、今後の展開など、ＳＷＩＦＴに関する情報を網羅的に解説している。","salesDate":"2009年07月","itemPrice":4104,"listPrice":0,"discountRate":0,"discountPrice":0,"itemUrl":"http://books.rakuten.co.jp/rb/6113563/","affiliateUrl":"","smallImageUrl":"http://thumbnail.image.rakuten.co.jp/@0_mall/book/cabinet/1305/9784492681305.jpg?_ex=64x64","mediumImageUrl":"http://thumbnail.image.rakuten.co.jp/@0_mall/book/cabinet/1305/9784492681305.jpg?_ex=120x120","largeImageUrl":"http://thumbnail.image.rakuten.co.jp/@0_mall/book/cabinet/1305/9784492681305.jpg?_ex=200x200","chirayomiUrl":"","availability":"1","postageFlag":2,"limitedFlag":0,"reviewCount":0,"reviewAverage":"0.0","booksGenreId":"001006024"}}],"GenreInformation":[]}
